2A/VHDL/mini-projet/fournitures/OpL/output.vcd
$date
   Fri Dec  3 19:55:20 2021
$end
$version
  P.20131013
$end
$timescale
  1ps
$end
$scope module testopl $end
$var wire 1 7! clk $end
$var wire 1 6! rst $end
$var wire 1 S en $end
$var wire 1 [ v1 [7] $end
$var wire 1 Z v1 [6] $end
$var wire 1 Y v1 [5] $end
$var wire 1 X v1 [4] $end
$var wire 1 W v1 [3] $end
$var wire 1 V v1 [2] $end
$var wire 1 U v1 [1] $end
$var wire 1 T v1 [0] $end
$var wire 1 c v2 [7] $end
$var wire 1 b v2 [6] $end
$var wire 1 a v2 [5] $end
$var wire 1 ` v2 [4] $end
$var wire 1 _ v2 [3] $end
$var wire 1 ^ v2 [2] $end
$var wire 1 ] v2 [1] $end
$var wire 1 \ v2 [0] $end
$var wire 1 P! miso $end
$var wire 1 Q! ss $end
$var wire 1 N! sclk $end
$var wire 1 O! mosi $end
$var wire 1 "! busy $end
$var wire 1 o val_nand [7] $end
$var wire 1 n val_nand [6] $end
$var wire 1 m val_nand [5] $end
$var wire 1 l val_nand [4] $end
$var wire 1 k val_nand [3] $end
$var wire 1 j val_nand [2] $end
$var wire 1 i val_nand [1] $end
$var wire 1 h val_nand [0] $end
$var wire 1 w val_nor [7] $end
$var wire 1 v val_nor [6] $end
$var wire 1 u val_nor [5] $end
$var wire 1 t val_nor [4] $end
$var wire 1 s val_nor [3] $end
$var wire 1 r val_nor [2] $end
$var wire 1 q val_nor [1] $end
$var wire 1 p val_nor [0] $end
$var wire 1 !! val_xor [7] $end
$var wire 1 ~ val_xor [6] $end
$var wire 1 } val_xor [5] $end
$var wire 1 | val_xor [4] $end
$var wire 1 { val_xor [3] $end
$var wire 1 z val_xor [2] $end
$var wire 1 y val_xor [1] $end
$var wire 1 x val_xor [0] $end
$scope module m $end
$var wire 1 6! rst $end
$var wire 1 7! clk $end
$var wire 1 S en $end
$var wire 1 [ v1 [7] $end
$var wire 1 Z v1 [6] $end
$var wire 1 Y v1 [5] $end
$var wire 1 X v1 [4] $end
$var wire 1 W v1 [3] $end
$var wire 1 V v1 [2] $end
$var wire 1 U v1 [1] $end
$var wire 1 T v1 [0] $end
$var wire 1 c v2 [7] $end
$var wire 1 b v2 [6] $end
$var wire 1 a v2 [5] $end
$var wire 1 ` v2 [4] $end
$var wire 1 _ v2 [3] $end
$var wire 1 ^ v2 [2] $end
$var wire 1 ] v2 [1] $end
$var wire 1 \ v2 [0] $end
$var wire 1 P! miso $end
$var wire 1 Q! ss $end
$var wire 1 N! sclk $end
$var wire 1 O! mosi $end
$var wire 1 o val_nand [7] $end
$var wire 1 n val_nand [6] $end
$var wire 1 m val_nand [5] $end
$var wire 1 l val_nand [4] $end
$var wire 1 k val_nand [3] $end
$var wire 1 j val_nand [2] $end
$var wire 1 i val_nand [1] $end
$var wire 1 h val_nand [0] $end
$var wire 1 w val_nor [7] $end
$var wire 1 v val_nor [6] $end
$var wire 1 u val_nor [5] $end
$var wire 1 t val_nor [4] $end
$var wire 1 s val_nor [3] $end
$var wire 1 r val_nor [2] $end
$var wire 1 q val_nor [1] $end
$var wire 1 p val_nor [0] $end
$var wire 1 !! val_xor [7] $end
$var wire 1 ~ val_xor [6] $end
$var wire 1 } val_xor [5] $end
$var wire 1 | val_xor [4] $end
$var wire 1 { val_xor [3] $end
$var wire 1 z val_xor [2] $end
$var wire 1 y val_xor [1] $end
$var wire 1 x val_xor [0] $end
$var wire 1 "! busy $end
$var wire 1 8! en_er $end
$var wire 1 @! din_er [7] $end
$var wire 1 ?! din_er [6] $end
$var wire 1 >! din_er [5] $end
$var wire 1 =! din_er [4] $end
$var wire 1 <! din_er [3] $end
$var wire 1 ;! din_er [2] $end
$var wire 1 :! din_er [1] $end
$var wire 1 9! din_er [0] $end
$var wire 1 K! dout_er [7] $end
$var wire 1 J! dout_er [6] $end
$var wire 1 I! dout_er [5] $end
$var wire 1 H! dout_er [4] $end
$var wire 1 G! dout_er [3] $end
$var wire 1 F! dout_er [2] $end
$var wire 1 E! dout_er [1] $end
$var wire 1 D! dout_er [0] $end
$var wire 1 L! busy_er $end
$scope module Inst_er_1octet $end
$var wire 1 6! rst $end
$var wire 1 7! clk $end
$var wire 1 8! en $end
$var wire 1 @! din [7] $end
$var wire 1 ?! din [6] $end
$var wire 1 >! din [5] $end
$var wire 1 =! din [4] $end
$var wire 1 <! din [3] $end
$var wire 1 ;! din [2] $end
$var wire 1 :! din [1] $end
$var wire 1 9! din [0] $end
$var wire 1 P! miso $end
$var wire 1 N! sclk $end
$var wire 1 O! mosi $end
$var wire 1 K! dout [7] $end
$var wire 1 J! dout [6] $end
$var wire 1 I! dout [5] $end
$var wire 1 H! dout [4] $end
$var wire 1 G! dout [3] $end
$var wire 1 F! dout [2] $end
$var wire 1 E! dout [1] $end
$var wire 1 D! dout [0] $end
$var wire 1 L! busy $end
$upscope $end
$upscope $end
$scope module uut $end
$var wire 1 N! sclk $end
$var wire 1 O! mosi $end
$var wire 1 P! miso $end
$var wire 1 Q! ss $end
$var wire 1 Y! v1 [7] $end
$var wire 1 X! v1 [6] $end
$var wire 1 W! v1 [5] $end
$var wire 1 V! v1 [4] $end
$var wire 1 U! v1 [3] $end
$var wire 1 T! v1 [2] $end
$var wire 1 S! v1 [1] $end
$var wire 1 R! v1 [0] $end
$var wire 1 a! v2 [7] $end
$var wire 1 `! v2 [6] $end
$var wire 1 _! v2 [5] $end
$var wire 1 ^! v2 [4] $end
$var wire 1 ]! v2 [3] $end
$var wire 1 \! v2 [2] $end
$var wire 1 [! v2 [1] $end
$var wire 1 Z! v2 [0] $end
$var wire 1 i! val_nand [7] $end
$var wire 1 h! val_nand [6] $end
$var wire 1 g! val_nand [5] $end
$var wire 1 f! val_nand [4] $end
$var wire 1 e! val_nand [3] $end
$var wire 1 d! val_nand [2] $end
$var wire 1 c! val_nand [1] $end
$var wire 1 b! val_nand [0] $end
$var wire 1 q! val_nor [7] $end
$var wire 1 p! val_nor [6] $end
$var wire 1 o! val_nor [5] $end
$var wire 1 n! val_nor [4] $end
$var wire 1 m! val_nor [3] $end
$var wire 1 l! val_nor [2] $end
$var wire 1 k! val_nor [1] $end
$var wire 1 j! val_nor [0] $end
$var wire 1 y! val_xor [7] $end
$var wire 1 x! val_xor [6] $end
$var wire 1 w! val_xor [5] $end
$var wire 1 v! val_xor [4] $end
$var wire 1 u! val_xor [3] $end
$var wire 1 t! val_xor [2] $end
$var wire 1 s! val_xor [1] $end
$var wire 1 r! val_xor [0] $end
$upscope $end
$upscope $end
$enddefinitions $end
#0
$dumpvars
06!
07!
0S
0[
0Z
0Y
0X
0W
0V
0U
0T
0c
0b
0a
0`
0_
0^
0]
0\
xP!
1Q!
1N!
0O!
0"!
0o
0n
0m
0l
0k
0j
0i
0h
0w
0v
0u
0t
0s
0r
0q
0p
0!!
0~
0}
0|
0{
0z
0y
0x
x8!
x@!
x?!
x>!
x=!
x<!
x;!
x:!
x9!
0K!
0J!
0I!
0H!
0G!
0F!
0E!
0D!
0L!
xY!
xX!
xW!
xV!
xU!
xT!
xS!
xR!
xa!
x`!
x_!
x^!
x]!
x\!
x[!
xZ!
0i!
0h!
1g!
1f!
0e!
0d!
1c!
1b!
1q!
1p!
0o!
0n!
1m!
1l!
0k!
0j!
1y!
0x!
1w!
0v!
0u!
0t!
0s!
0r!
$end
#5000
17!
#10000
07!
#15000
17!
#20000
07!
#25000
17!
#30000
07!
#35000
17!
#40000
07!
#45000
17!
#50000
07!
#55000
17!
#60000
07!
#65000
17!
#70000
07!
#75000
17!
#80000
07!
#85000
17!
#90000
07!
#95000
17!
#100000
16!
07!
#105000
17!
#110000
07!
#115000
17!
#120000
07!
#125000
17!
#130000
07!
#135000
17!
#140000
07!
#145000
17!
#150000
07!
#155000
17!
#160000
07!
#165000
17!
#170000
07!
#175000
17!
#180000
07!
#185000
17!
#190000
07!
#195000
17!
#200000
07!
1[
1Y
1X
1V
1T
1c
1\
#205000
17!
#210000
07!
#215000
17!
#220000
07!
#225000
17!
#230000
07!
#235000
17!
#240000
07!
#245000
17!
#250000
07!
#255000
17!
#260000
07!
#265000
17!
#270000
07!
#275000
17!
#280000
07!
#285000
17!
#290000
07!
#295000
17!
#300000
07!
1S
#305000
17!
0Q!
1"!
#310000
07!
#315000
17!
#320000
07!
#325000
17!
#330000
07!
0S
#335000
17!
#340000
07!
#345000
17!
#350000
07!
#355000
17!
#360000
07!
#365000
17!
#370000
07!
#375000
17!
#380000
07!
#385000
17!
#390000
07!
#395000
17!
#400000
07!
#405000
17!
#410000
07!
#415000
17!
18!
1@!
0?!
1>!
1=!
0<!
1;!
0:!
19!
#420000
07!
#425000
17!
0P!
0N!
1O!
08!
1L!
#430000
07!
#435000
17!
1N!
1Y!
#440000
07!
#445000
17!
0N!
0O!
#450000
07!
#455000
17!
1N!
0X!
#460000
07!
#465000
17!
1P!
0N!
1O!
#470000
07!
#475000
17!
1N!
1W!
#480000
07!
#485000
17!
0N!
#490000
07!
#495000
17!
1N!
1V!
#500000
07!
#505000
17!
0P!
0N!
0O!
#510000
07!
#515000
17!
1N!
0U!
#520000
07!
#525000
17!
0N!
1O!
#530000
07!
#535000
17!
1N!
1T!
#540000
07!
#545000
17!
1P!
0N!
0O!
#550000
07!
#555000
17!
1N!
0S!
#560000
07!
#565000
17!
0N!
1O!
#570000
07!
#575000
17!
1N!
1I!
1H!
1E!
1D!
0L!
1R!
#580000
07!
#585000
17!
1m
1l
1i
1h
#590000
07!
#595000
17!
#600000
07!
#605000
17!
#610000
07!
#615000
17!
#620000
07!
#625000
17!
18!
0>!
0=!
0;!
#630000
07!
#635000
17!
0N!
08!
1L!
#640000
07!
#645000
17!
1N!
1a!
#650000
07!
#655000
17!
0N!
0O!
#660000
07!
#665000
17!
1N!
0`!
#670000
07!
#675000
17!
0P!
0N!
#680000
07!
#685000
17!
1N!
0_!
#690000
07!
#695000
17!
0N!
#700000
07!
#705000
17!
1N!
0^!
#710000
07!
#715000
17!
1P!
0N!
#720000
07!
#725000
17!
1N!
0]!
#730000
07!
#735000
17!
0N!
#740000
07!
#745000
17!
1N!
0\!
#750000
07!
#755000
17!
0P!
0N!
#760000
07!
#765000
17!
1N!
0[!
#770000
07!
#775000
17!
0N!
1O!
#780000
07!
#785000
17!
1N!
1K!
1J!
0I!
0H!
1G!
1F!
0E!
0D!
0L!
1Z!
#790000
07!
#795000
17!
1w
1v
1s
1r
#800000
07!
#805000
17!
#810000
07!
#815000
17!
#820000
07!
#825000
17!
#830000
07!
#835000
17!
18!
0@!
09!
#840000
07!
#845000
17!
1P!
0N!
0O!
08!
1L!
#850000
07!
#855000
17!
1N!
#860000
07!
#865000
17!
0P!
0N!
#870000
07!
#875000
17!
1N!
#880000
07!
#885000
17!
1P!
0N!
#890000
07!
#895000
17!
1N!
#900000
07!
#905000
17!
0P!
0N!
#910000
07!
#915000
17!
1N!
#920000
07!
#925000
17!
0N!
#930000
07!
#935000
17!
1N!
#940000
07!
#945000
17!
0N!
#950000
07!
#955000
17!
1N!
#960000
07!
#965000
17!
0N!
#970000
07!
#975000
17!
1N!
#980000
07!
#985000
17!
0N!
#990000
07!
#995000
17!
1N!
0J!
1I!
0G!
0F!
0L!
1h!
1e!
1d!
0b!
0q!
0l!
1k!
0y!
1v!
1t!
#1000000
07!
#1005000
17!
0Y
0X
1`
1^
1Q!
0"!
1!!
1}
#1010000
07!
#1015000
17!
#1020000
07!
#1025000
17!
#1030000
07!
#1035000
17!
#1040000
07!
#1045000
17!
#1050000
07!
#1055000
17!
#1060000
07!
#1065000
17!
#1070000
07!
#1075000
17!
#1080000
07!
#1085000
17!
#1090000
07!
#1095000
17!
#1100000
07!
#1105000
17!
1S
0Q!
1"!
#1110000
07!
#1115000
17!
#1120000
07!
#1125000
17!
#1130000
07!
#1135000
17!
0S
#1140000
07!
#1145000
17!
#1150000
07!
#1155000
17!
#1160000
07!
#1165000
17!
#1170000
07!
#1175000
17!
#1180000
07!
#1185000
17!
#1190000
07!
#1195000
17!
#1200000
07!
#1205000
17!
#1210000
07!
#1215000
17!
18!
1@!
1;!
19!
#1220000
07!
#1225000
17!
0N!
1O!
08!
1L!
#1230000
07!
#1235000
17!
1N!
#1240000
07!
#1245000
17!
1P!
0N!
0O!
#1250000
07!
#1255000
17!
1N!
#1260000
07!
#1265000
17!
0N!
#1270000
07!
#1275000
17!
1N!
0W!
#1280000
07!
#1285000
17!
0N!
#1290000
07!
#1295000
17!
1N!
0V!
#1300000
07!
#1305000
17!
0N!
#1310000
07!
#1315000
17!
1N!
#1320000
07!
#1325000
17!
0N!
1O!
#1330000
07!
#1335000
17!
1N!
#1340000
07!
#1345000
17!
0N!
0O!
#1350000
07!
#1355000
17!
1N!
#1360000
07!
#1365000
17!
0P!
0N!
1O!
#1370000
07!
#1375000
17!
1N!
0K!
1J!
1H!
1G!
1F!
1E!
0L!
#1380000
07!
#1385000
17!
1n
1k
1j
0h
#1390000
07!
#1395000
17!
#1400000
07!
#1405000
17!
#1410000
07!
#1415000
17!
#1420000
07!
#1425000
17!
18!
1=!
#1430000
07!
#1435000
17!
0N!
08!
1L!
#1440000
07!
#1445000
17!
1N!
#1450000
07!
#1455000
17!
1P!
0N!
0O!
#1460000
07!
#1465000
17!
1N!
#1470000
07!
#1475000
17!
0P!
0N!
#1480000
07!
#1485000
17!
1N!
#1490000
07!
#1495000
17!
0N!
1O!
#1500000
07!
#1505000
17!
1N!
1^!
#1510000
07!
#1515000
17!
1P!
0N!
0O!
#1520000
07!
#1525000
17!
1N!
#1530000
07!
#1535000
17!
0P!
0N!
1O!
#1540000
07!
#1545000
17!
1N!
1\!
#1550000
07!
#1555000
17!
1P!
0N!
0O!
#1560000
07!
#1565000
17!
1N!
#1570000
07!
#1575000
17!
0P!
0N!
1O!
#1580000
07!
#1585000
17!
1N!
0I!
0H!
0F!
0L!
#1590000
07!
#1595000
17!
0w
0r
1q
#1600000
07!
#1605000
17!
#1610000
07!
#1615000
17!
#1620000
07!
#1625000
17!
#1630000
07!
#1635000
17!
18!
0@!
0=!
0;!
09!
#1640000
07!
#1645000
17!
0N!
0O!
08!
1L!
#1650000
07!
#1655000
17!
1N!
#1660000
07!
#1665000
17!
0N!
#1670000
07!
#1675000
17!
1N!
#1680000
07!
#1685000
17!
1P!
0N!
#1690000
07!
#1695000
17!
1N!
#1700000
07!
#1705000
17!
0N!
#1710000
07!
#1715000
17!
1N!
#1720000
07!
#1725000
17!
0P!
0N!
#1730000
07!
#1735000
17!
1N!
#1740000
07!
#1745000
17!
1P!
0N!
#1750000
07!
#1755000
17!
1N!
#1760000
07!
#1765000
17!
0P!
0N!
#1770000
07!
#1775000
17!
1N!
#1780000
07!
#1785000
17!
0N!
#1790000
07!
#1795000
17!
1N!
0J!
1I!
1H!
0G!
1F!
0E!
0L!
0d!
1o!
0w!
0t!
#1800000
07!
#1805000
17!
1X
0`
1_
0^
1Q!
0"!
0!!
1|
1z
#1810000
07!
#1815000
17!
#1820000
07!
#1825000
17!
#1830000
07!
#1835000
17!
#1840000
07!
#1845000
17!
#1850000
07!
#1855000
17!
#1860000
07!
#1865000
17!
#1870000
07!
#1875000
17!
#1880000
07!
#1885000
17!
#1890000
07!
#1895000
17!
#1900000
07!
#1905000
17!
1S
0Q!
1"!
#1910000
07!
#1915000
17!
#1920000
07!
#1925000
17!
#1930000
07!
#1935000
17!
0S
#1940000
07!
#1945000
17!
#1950000
07!
#1955000
17!
#1960000
07!
#1965000
17!
#1970000
07!
#1975000
17!
#1980000
07!
#1985000
17!
#1990000
07!
#1995000
17!
#2000000
07!
#2005000
17!
#2010000
07!
#2015000
17!
18!
1@!
1=!
1;!
19!
#2020000
07!
#2025000
17!
0N!
1O!
08!
1L!
#2030000
07!
#2035000
17!
1N!
#2040000
07!
#2045000
17!
1P!
0N!
0O!
#2050000
07!
#2055000
17!
1N!
#2060000
07!
#2065000
17!
0N!
#2070000
07!
#2075000
17!
1N!
#2080000
07!
#2085000
17!
0N!
1O!
#2090000
07!
#2095000
17!
1N!
1V!
#2100000
07!
#2105000
17!
0N!
0O!
#2110000
07!
#2115000
17!
1N!
#2120000
07!
#2125000
17!
0P!
0N!
1O!
#2130000
07!
#2135000
17!
1N!
#2140000
07!
#2145000
17!
1P!
0N!
0O!
#2150000
07!
#2155000
17!
1N!
#2160000
07!
#2165000
17!
0P!
0N!
1O!
#2170000
07!
#2175000
17!
1N!
1J!
1G!
0F!
1E!
0L!
#2180000
07!
#2185000
17!
0j
#2190000
07!
#2195000
17!
#2200000
07!
#2205000
17!
#2210000
07!
#2215000
17!
#2220000
07!
#2225000
17!
18!
0=!
1<!
0;!
#2230000
07!
#2235000
17!
0N!
08!
1L!
#2240000
07!
#2245000
17!
1N!
#2250000
07!
#2255000
17!
1P!
0N!
0O!
#2260000
07!
#2265000
17!
1N!
#2270000
07!
#2275000
17!
0N!
#2280000
07!
#2285000
17!
1N!
#2290000
07!
#2295000
17!
0P!
0N!
#2300000
07!
#2305000
17!
1N!
0^!
#2310000
07!
#2315000
17!
1P!
0N!
1O!
#2320000
07!
#2325000
17!
1N!
1]!
#2330000
07!
#2335000
17!
0P!
0N!
0O!
#2340000
07!
#2345000
17!
1N!
0\!
#2350000
07!
#2355000
17!
1P!
0N!
#2360000
07!
#2365000
17!
1N!
#2370000
07!
#2375000
17!
0P!
0N!
1O!
#2380000
07!
#2385000
17!
1N!
0H!
0L!
#2390000
07!
#2395000
17!
1u
#2400000
07!
#2405000
17!
#2410000
07!
#2415000
17!
#2420000
07!
#2425000
17!
#2430000
07!
#2435000
17!
18!
0@!
0<!
09!
#2440000
07!
#2445000
17!
0N!
0O!
08!
1L!
#2450000
07!
#2455000
17!
1N!
#2460000
07!
#2465000
17!
0N!
#2470000
07!
#2475000
17!
1N!
#2480000
07!
#2485000
17!
0N!
#2490000
07!
#2495000
17!
1N!
#2500000
07!
#2505000
17!
1P!
0N!
#2510000
07!
#2515000
17!
1N!
#2520000
07!
#2525000
17!
0P!
0N!
#2530000
07!
#2535000
17!
1N!
#2540000
07!
#2545000
17!
0N!
#2550000
07!
#2555000
17!
1N!
#2560000
07!
#2565000
17!
0N!
#2570000
07!
#2575000
17!
1N!
#2580000
07!
#2585000
17!
0N!
#2590000
07!
#2595000
17!
1N!
0J!
0I!
1H!
0G!
0E!
0L!
1d!
0m!
1u!
1t!
#2600000
07!
#2605000
17!
1Q!
0"!
0}
0z
